define i16 @main(i16 %argc, i8** %argv) {
  %local5432 = add i16 2, 3
  %local5434 = alloca i16
  br i1 1, label %then5438, label %else5439
then5438:
  store i16 %local5432, i16* %local5434
  br label %merge5440
else5439:
  %local5433 = add i16 %local5432, 1
  store i16 %local5433, i16* %local5434
  br label %merge5440
merge5440:
  %local5437 = load i16, i16* %local5434
  %local5441 = add i16 4, %local5437
  ret i16 %local5441
}


